{
    "Check": [
        "customer.core",
        "abs_bankaccount.uml"
    ],
    "Save": [
        "account.core",
        "abs_bankaccount.uml"
    ],
    "bankaccount": [
        "abs_bankaccount.core",
        "abs_bankaccount.uml"
    ],
    "bankaccountfee": [
        "abs_bankaccount_withfee.core",
        "abs_bankaccount.uml"
    ],
    "Expense": [
        "expense.core",
        "RSE_financial_report.uml"
    ],
    "Manual": [
        "summary.core",
        "RSE_financial_report.uml"
    ],
    "Donor": [
        "donor.core",
        "RSE_financial_report.uml"
    ],
    "Income": [
        "income.core",
        "RSE_financial_report.uml"
    ],
    "PSAK45": [
        "coa.core",
        "RSE_financial_report.uml"
    ],
    "PSAK109": [
        "PSAK109.core",
        "RSE_financial_report.uml"
    ],
    "Activity": [
        "program_with_income.core",
        "RSE_financial_report.uml"
    ],
    "ItemDonation": [
        "ItemDonation.core",
        "RSE_financial_report.uml"
    ],
    "MoneyDonation": [
        "MoneyDonation.core",
        "RSE_financial_report.uml"
    ],
    "Confirmation": [
        "Confirmation.core",
        "RSE_financial_report.uml"
    ],
    "ListCoa": [
        "list_coa.core",
        "RSE_financial_report.uml"
    ],
    "ViaWebsite": [
        "via_website.core",
        "RSE_financial_report.uml"
    ],
    "OnlineDonation": [
        "online_donation.core",
        "RSE_financial_report.uml"
    ],
    "OfflineDonation": [
        "offline_donation.core",
        "RSE_financial_report.uml"
    ]
}